<svg width="70" height="70" viewBox="0 0 70 70" fill="none" xmlns="http://www.w3.org/2000/svg">
<circle opacity="0.1" cx="35" cy="35" r="35" fill="#30994B"/>
<path d="M20 35.5L30.5 46L52.5 24" stroke="#30994B" stroke-width="2" stroke-linecap="round" stroke-linejoin="round"/>
</svg>
