<svg width="16" height="16" viewBox="0 0 16 16" fill="none" xmlns="http://www.w3.org/2000/svg">
<path d="M7.71751 14.435V1.00001M7.71751 1.00001L3.47487 5.24266M7.71751 1.00001L11.6066 4.8891" stroke="#BE090A" stroke-linecap="round" stroke-linejoin="round"/>
</svg>
